<?xml version="1.0" standalone="no"?>
<!DOCTYPE svg PUBLIC "-//W3C//DTD SVG 20010904//EN"
 "http://www.w3.org/TR/2001/REC-SVG-20010904/DTD/svg10.dtd">
<svg version="1.0" xmlns="http://www.w3.org/2000/svg"
 width="1280.000000pt" height="1084.000000pt" viewBox="0 0 1280.000000 1084.000000"
 preserveAspectRatio="xMidYMid meet">
<g transform="translate(0.000000,1084.000000) scale(0.100000,-0.100000)"
fill="#000000" stroke="none">
<path d="M7380 7385 c-1614 -1614 -2938 -2934 -2942 -2933 -4 2 -447 442 -983
978 l-975 975 -983 -983 -982 -982 1963 -1962 1962 -1963 3922 3922 3923 3923
-980 980 c-539 539 -982 980 -985 980 -3 0 -1326 -1321 -2940 -2935z"/>
</g>
</svg>
